dump.vcd
$date
	Fri Feb 07 11:19:23 2025
$end
$version
	Icarus Verilog
$end
$timescale
	1s
$end
$scope module dtb $end
$var wire 128 ! ke_round_key [127:0] $end
$var wire 1 " dn $end
$var wire 4 # d_round [3:0] $end
$var wire 128 $ d_plainText [127:0] $end
$var reg 1 % clk $end
$var reg 128 & d_cypherText [127:0] $end
$var reg 1 ' d_en $end
$var reg 128 ( d_round_key [127:0] $end
$var reg 128 ) input_key [127:0] $end
$var reg 1 * ke_en $end
$var reg 4 + ke_round [3:0] $end
$scope module dut $end
$var wire 128 , cipherText [127:0] $end
$var wire 1 % clk $end
$var wire 1 ' en $end
$var wire 4 - round [3:0] $end
$var wire 128 . round_key [127:0] $end
$var wire 128 / invBSOut [127:0] $end
$var parameter 2 0 final $end
$var parameter 2 1 first $end
$var parameter 2 2 idle $end
$var parameter 2 3 main $end
$var reg 128 4 KAOut [127:0] $end
$var reg 1 " dn $end
$var reg 1 5 done $end
$var reg 1 6 done_d $end
$var reg 128 7 invMCOut [127:0] $end
$var reg 128 8 invSROut [127:0] $end
$var reg 128 9 old_block [127:0] $end
$var reg 128 : plainText [127:0] $end
$var reg 4 ; round_nm [3:0] $end
$var reg 2 < state [1:0] $end
$scope function addroundkey $end
$upscope $end
$scope function gm09 $end
$upscope $end
$scope function gm11 $end
$upscope $end
$scope function gm13 $end
$upscope $end
$scope function gm14 $end
$upscope $end
$scope function gm2 $end
$upscope $end
$scope function gm3 $end
$upscope $end
$scope function gm4 $end
$upscope $end
$scope function gm8 $end
$upscope $end
$scope function inv_mixcolumns $end
$upscope $end
$scope function inv_mixw $end
$upscope $end
$scope function inv_shiftrows $end
$upscope $end
$scope module ibs_inst $end
$var wire 128 = in [127:0] $end
$var wire 128 > out [127:0] $end
$scope module invSB_inst_1 $end
$var wire 32 ? in [31:0] $end
$var wire 32 @ out [31:0] $end
$upscope $end
$scope module invSB_inst_2 $end
$var wire 32 A in [31:0] $end
$var wire 32 B out [31:0] $end
$upscope $end
$scope module invSB_inst_3 $end
$var wire 32 C in [31:0] $end
$var wire 32 D out [31:0] $end
$upscope $end
$scope module invSB_inst_4 $end
$var wire 32 E in [31:0] $end
$var wire 32 F out [31:0] $end
$upscope $end
$upscope $end
$upscope $end
$scope module ke_inst $end
$var wire 1 % clk $end
$var wire 1 * en $end
$var wire 128 G input_key [127:0] $end
$var wire 4 H round [3:0] $end
$var wire 32 I subByteOut [31:0] $end
$var wire 128 J round_key [127:0] $end
$var parameter 2 K idle $end
$var parameter 2 L main $end
$var reg 32 M circ [31:0] $end
$var reg 32 N circSub [31:0] $end
$var reg 1 O done $end
$var reg 1408 P key_reg [1407:0] $end
$var reg 2 Q next_state [1:0] $end
$var reg 128 R old_round_key [127:0] $end
$var reg 32 S rc_check [31:0] $end
$var reg 128 T round_key_new [127:0] $end
$var reg 4 U round_nm [3:0] $end
$var reg 128 V save [127:0] $end
$var reg 32 W sbo [31:0] $end
$var reg 2 X state [1:0] $end
$var reg 32 Y subByteIn [31:0] $end
$var reg 32 Z xored [31:0] $end
$scope function round_cf $end
$upscope $end
$scope module sb_inst $end
$var wire 32 [ in [31:0] $end
$var wire 32 \ out [31:0] $end
$scope begin genblk1[1] $end
$var parameter 2 ] i $end
$scope module sbox_inst $end
$var wire 8 ^ in [7:0] $end
$var reg 8 _ out [7:0] $end
$upscope $end
$upscope $end
$scope begin genblk1[2] $end
$var parameter 3 ` i $end
$scope module sbox_inst $end
$var wire 8 a in [7:0] $end
$var reg 8 b out [7:0] $end
$upscope $end
$upscope $end
$scope begin genblk1[3] $end
$var parameter 3 c i $end
$scope module sbox_inst $end
$var wire 8 d in [7:0] $end
$var reg 8 e out [7:0] $end
$upscope $end
$upscope $end
$scope begin genblk1[4] $end
$var parameter 4 f i $end
$scope module sbox_inst $end
$var wire 8 g in [7:0] $end
$var reg 8 h out [7:0] $end
$upscope $end
$upscope $end
$upscope $end
$upscope $end
$upscope $end
$enddefinitions $end
$comment Show the parameter values. $end
$dumpall
b100 f
b11 c
b10 `
b1 ]
b1 L
b0 K
b10 3
b0 2
b1 1
b11 0
$end
#0
$dumpvars
b10001010 h
b11001111 g
b10000100 e
b1001111 d
b11101011 b
b111100 a
b1 _
b1001 ^
b10001010100001001110101100000001 \
b11001111010011110011110000001001 [
bx Z
b11001111010011110011110000001001 Y
b0 X
bx W
bx V
b0 U
bx T
bx S
b101011011111100001010100010110001010001010111011010010101001101010101111110111000101011000100000001001110011110100111100111100 R
b1 Q
bx00101011011111100001010100010110001010001010111011010010101001101010101111110111000101011000100000001001110011110100111100111100 P
0O
bx N
b11001111010011110011110000001001 M
bx J
b10001010100001001110101100000001 I
b1010 H
b101011011111100001010100010110001010001010111011010010101001101010101111110111000101011000100000001001110011110100111100111100 G
bx F
bx E
bx D
bx C
bx B
bx A
bx @
bx ?
bx >
bx =
b0 <
b1010 ;
bx :
bx 9
bx 8
bx 7
06
05
bx 4
bx /
bx .
b1010 -
b10010111001111110010111011110011010010000111100111100010000000100111111100010111001101000011000000111111111100100001111110001001 ,
b1010 +
1*
b101011011111100001010100010110001010001010111011010010101001101010101111110111000101011000100000001001110011110100111100111100 )
bx (
0'
b10010111001111110010111011110011010010000111100111100010000000100111111100010111001101000011000000111111111100100001111110001001 &
0%
bx $
b1010 #
x"
bx !
$end
#5
b11100101 _
b1101011 b
b111000 e
b1010000001110000110101111100101 I
b1010000001110000110101111100101 \
b1010000 h
b101010 ^
b101 a
b1110110 d
b1101100 g
bx +
bx H
b1101100011101100000010100101010 Y
b1101100011101100000010100101010 [
b1101100011101100000010100101010 M
bx1010000011111010111111100001011110001000010101000010110010110001001000111010001100111001001110010010101001101100011101100000010100101011011111100001010100010110001010001010111011010010101001101010101111110111000101011000100000001001110011110100111100111100 P
b10100000111110101111111000010111100010000101010000101100101100010010001110100011001110010011100100101010011011000111011000000101 R
b10100000111110101111111000010111100010000101010000101100101100010010001110100011001110010011100100101010011011000111011000000101 T
b10001011100001001110101100000001 Z
b10001010100001001110101100000001 N
b1000000000000000000000000 S
bx #
bx -
bx ;
b10001010100001001110101100000001 W
b1 U
b1 X
1%
#10
0%
#15
b10001111 _
b11010010 b
b1000010 e
b11001011010000101101001010001111 I
b11001011010000101101001010001111 \
b11001011 h
b1110011 ^
b1111111 a
b11110110 d
b1011001 g
b1011001111101100111111101110011 Y
b1011001111101100111111101110011 [
b1011001111101100111111101110011 M
bx111100101100001010010101111100100111101010010110101110010100001101011001001101011000000001111010011100110101100111110110011111111010000011111010111111100001011110001000010101000010110010110001001000111010001100111001001110010010101001101100011101100000010100101011011111100001010100010110001010001010111011010010101001101010101111110111000101011000100000001001110011110100111100111100 P
b11110010110000101001010111110010011110101001011010111001010000110101100100110101100000000111101001110011010110011111011001111111 R
b11110010110000101001010111110010011110101001011010111001010000110101100100110101100000000111101001110011010110011111011001111111 T
b1010010001110000110101111100101 Z
b1010000001110000110101111100101 N
b10000000000000000000000000 S
b1010000001110000110101111100101 W
b10 U
1%
#20
0%
#25
b111100 _
b11100010 b
b11000100 e
b11011010110001001110001000111100 I
b11011010110001001110001000111100 \
b11011010 h
b1101101 ^
b111011 a
b10001000 d
b1111010 g
b1111010100010000011101101101101 Y
b1111010100010000011101101101101 [
b1111010100010000011101101101101 M
bx00111101100000000100011101111101010001110001011011111110001111100001111000100011011111100100010001101101011110101000100000111011111100101100001010010101111100100111101010010110101110010100001101011001001101011000000001111010011100110101100111110110011111111010000011111010111111100001011110001000010101000010110010110001001000111010001100111001001110010010101001101100011101100000010100101011011111100001010100010110001010001010111011010010101001101010101111110111000101011000100000001001110011110100111100111100 P
b111101100000000100011101111101010001110001011011111110001111100001111000100011011111100100010001101101011110101000100000111011 R
b111101100000000100011101111101010001110001011011111110001111100001111000100011011111100100010001101101011110101000100000111011 T
b11001111010000101101001010001111 Z
b11001011010000101101001010001111 N
b100000000000000000000000000 S
b10100000111110101111111000010111100010000101010000101100101100010010001110100011001110010011100100101010011011000111011000000101 V
b11001011010000101101001010001111 W
b11 U
1%
#30
0%
#35
b10111001 _
b1100011 b
b10010101 e
b101011100101010110001110111001 I
b101011100101010110001110111001 \
b101011 h
b11011011 ^
b0 a
b10101101 d
b1011 g
b1011101011010000000011011011 Y
b1011101011010000000011011011 [
b1011101011010000000011011011 M
bx1110111101000100101001010100000110101000010100100101101101111111101101100111000100100101001110111101101100001011101011010000000000111101100000000100011101111101010001110001011011111110001111100001111000100011011111100100010001101101011110101000100000111011111100101100001010010101111100100111101010010110101110010100001101011001001101011000000001111010011100110101100111110110011111111010000011111010111111100001011110001000010101000010110010110001001000111010001100111001001110010010101001101100011101100000010100101011011111100001010100010110001010001010111011010010101001101010101111110111000101011000100000001001110011110100111100111100 P
b11101111010001001010010101000001101010000101001001011011011111111011011001110001001001010011101111011011000010111010110100000000 R
b11101111010001001010010101000001101010000101001001011011011111111011011001110001001001010011101111011011000010111010110100000000 T
b11010010110001001110001000111100 Z
b11011010110001001110001000111100 N
b1000000000000000000000000000 S
b11011010110001001110001000111100 W
b100 U
1%
#40
0%
#45
b10000010 _
b1100101 b
b1011001 e
b10011001010110010110010110000010 I
b10011001010110010110010110000010 \
b10011001 h
b10001 ^
b10111100 a
b10101 d
b11111001 g
b11111001000101011011110000010001 Y
b11111001000101011011110000010001 [
b11111001000101011011110000010001 M
bx110101001101000111000110111110000111110010000011100111011000011111001010111100101011100010111100000100011111100100010101101111001110111101000100101001010100000110101000010100100101101101111111101101100111000100100101001110111101101100001011101011010000000000111101100000000100011101111101010001110001011011111110001111100001111000100011011111100100010001101101011110101000100000111011111100101100001010010101111100100111101010010110101110010100001101011001001101011000000001111010011100110101100111110110011111111010000011111010111111100001011110001000010101000010110010110001001000111010001100111001001110010010101001101100011101100000010100101011011111100001010100010110001010001010111011010010101001101010101111110111000101011000100000001001110011110100111100111100 P
b11010100110100011100011011111000011111001000001110011101100001111100101011110010101110001011110000010001111110010001010110111100 R
b11010100110100011100011011111000011111001000001110011101100001111100101011110010101110001011110000010001111110010001010110111100 T
b111011100101010110001110111001 Z
b101011100101010110001110111001 N
b10000000000000000000000000000 S
b101011100101010110001110111001 W
b101 U
1%
#50
0%
#55
b1110100 _
b1010100 b
b11011100 e
b1100011110111000101010001110100 I
b1100011110111000101010001110100 \
b1100011 h
b11001010 ^
b11111101 a
b10010011 d
b0 g
b100100111111110111001010 Y
b100100111111110111001010 [
b100100111111110111001010 M
bx01101101100010001010001101111010000100010000101100111110111111011101101111111001100001100100000111001010000000001001001111111101110101001101000111000110111110000111110010000011100111011000011111001010111100101011100010111100000100011111100100010101101111001110111101000100101001010100000110101000010100100101101101111111101101100111000100100101001110111101101100001011101011010000000000111101100000000100011101111101010001110001011011111110001111100001111000100011011111100100010001101101011110101000100000111011111100101100001010010101111100100111101010010110101110010100001101011001001101011000000001111010011100110101100111110110011111111010000011111010111111100001011110001000010101000010110010110001001000111010001100111001001110010010101001101100011101100000010100101011011111100001010100010110001010001010111011010010101001101010101111110111000101011000100000001001110011110100111100111100 P
b1101101100010001010001101111010000100010000101100111110111111011101101111111001100001100100000111001010000000001001001111111101 R
b1101101100010001010001101111010000100010000101100111110111111011101101111111001100001100100000111001010000000001001001111111101 T
b10111001010110010110010110000010 Z
b10011001010110010110010110000010 N
b100000000000000000000000000000 S
b10011001010110010110010110000010 W
b110 U
1%
#60
0%
#65
b101111 _
b10000100 b
b10000110 e
b100100100001101000010000101111 I
b100100100001101000010000101111 \
b100100 h
b1001110 ^
b1001111 a
b11011100 d
b10100110 g
b10100110110111000100111101001110 Y
b10100110110111000100111101001110 [
b10100110110111000100111101001110 M
bx0100111001010100111101110000111001011111010111111100100111110011100001001010011001001111101100100100111010100110110111000100111101101101100010001010001101111010000100010000101100111110111111011101101111111001100001100100000111001010000000001001001111111101110101001101000111000110111110000111110010000011100111011000011111001010111100101011100010111100000100011111100100010101101111001110111101000100101001010100000110101000010100100101101101111111101101100111000100100101001110111101101100001011101011010000000000111101100000000100011101111101010001110001011011111110001111100001111000100011011111100100010001101101011110101000100000111011111100101100001010010101111100100111101010010110101110010100001101011001001101011000000001111010011100110101100111110110011111111010000011111010111111100001011110001000010101000010110010110001001000111010001100111001001110010010101001101100011101100000010100101011011111100001010100010110001010001010111011010010101001101010101111110111000101011000100000001001110011110100111100111100 P
b1001110010101001111011100001110010111110101111111001001111100111000010010100110010011111011001001001110101001101101110001001111 R
b1001110010101001111011100001110010111110101111111001001111100111000010010100110010011111011001001001110101001101101110001001111 T
b100011110111000101010001110100 Z
b1100011110111000101010001110100 N
b1000000000000000000000000000000 S
b1100011110111000101010001110100 W
b111 U
1%
#70
0%
#75
b11010010 _
b10101 b
b10100101 e
b1011101101001010001010111010010 I
b1011101101001010001010111010010 \
b1011101 h
b1111111 ^
b101111 a
b101001 d
b10001101 g
b10001101001010010010111101111111 Y
b10001101001010010010111101111111 [
b10001101001010010010111101111111 M
bx111010101101001001110011001000011011010110001101101110101101001000110001001010111111010101100000011111111000110100101001001011110100111001010100111101110000111001011111010111111100100111110011100001001010011001001111101100100100111010100110110111000100111101101101100010001010001101111010000100010000101100111110111111011101101111111001100001100100000111001010000000001001001111111101110101001101000111000110111110000111110010000011100111011000011111001010111100101011100010111100000100011111100100010101101111001110111101000100101001010100000110101000010100100101101101111111101101100111000100100101001110111101101100001011101011010000000000111101100000000100011101111101010001110001011011111110001111100001111000100011011111100100010001101101011110101000100000111011111100101100001010010101111100100111101010010110101110010100001101011001001101011000000001111010011100110101100111110110011111111010000011111010111111100001011110001000010101000010110010110001001000111010001100111001001110010010101001101100011101100000010100101011011111100001010100010110001010001010111011010010101001101010101111110111000101011000100000001001110011110100111100111100 P
b11101010110100100111001100100001101101011000110110111010110100100011000100101011111101010110000001111111100011010010100100101111 R
b11101010110100100111001100100001101101011000110110111010110100100011000100101011111101010110000001111111100011010010100100101111 T
b10100100100001101000010000101111 Z
b100100100001101000010000101111 N
b10000000000000000000000000000000 S
b100100100001101000010000101111 W
b1000 U
1%
#80
0%
#85
b1011011 _
b10011111 b
b1100011 e
b1001010011000111001111101011011 I
b1001010011000111001111101011011 \
b1001010 h
b1010111 ^
b1101110 a
b0 d
b1011100 g
b1011100000000000110111001010111 Y
b1011100000000000110111001010111 [
b1011100000000000110111001010111 M
bx10101100011101110110011011110011000110011111101011011100001000010010100011010001001010010100000101010111010111000000000001101110111010101101001001110011001000011011010110001101101110101101001000110001001010111111010101100000011111111000110100101001001011110100111001010100111101110000111001011111010111111100100111110011100001001010011001001111101100100100111010100110110111000100111101101101100010001010001101111010000100010000101100111110111111011101101111111001100001100100000111001010000000001001001111111101110101001101000111000110111110000111110010000011100111011000011111001010111100101011100010111100000100011111100100010101101111001110111101000100101001010100000110101000010100100101101101111111101101100111000100100101001110111101101100001011101011010000000000111101100000000100011101111101010001110001011011111110001111100001111000100011011111100100010001101101011110101000100000111011111100101100001010010101111100100111101010010110101110010100001101011001001101011000000001111010011100110101100111110110011111111010000011111010111111100001011110001000010101000010110010110001001000111010001100111001001110010010101001101100011101100000010100101011011111100001010100010110001010001010111011010010101001101010101111110111000101011000100000001001110011110100111100111100 P
b10101100011101110110011011110011000110011111101011011100001000010010100011010001001010010100000101010111010111000000000001101110 R
b10101100011101110110011011110011000110011111101011011100001000010010100011010001001010010100000101010111010111000000000001101110 T
b1000110101001010001010111010010 Z
b1011101101001010001010111010010 N
b11011000000000000000000000000 S
b1011101101001010001010111010010 W
b1001 U
1%
#90
0%
#95
b1001110 _
b100100 b
b11111110 e
b11111011111111100010010001001110 I
b11111011111111100010010001001110 \
b11111011 h
b10110110 ^
b10100110 a
b1100 d
b1100011 g
b1100011000011001010011010110110 Y
b1100011000011001010011010110110 [
b1100011000011001010011010110110 M
b1101000000010100111110011010100011001001111011100010010110001001111000010011111100001100110010001011011001100011000011001010011010101100011101110110011011110011000110011111101011011100001000010010100011010001001010010100000101010111010111000000000001101110111010101101001001110011001000011011010110001101101110101101001000110001001010111111010101100000011111111000110100101001001011110100111001010100111101110000111001011111010111111100100111110011100001001010011001001111101100100100111010100110110111000100111101101101100010001010001101111010000100010000101100111110111111011101101111111001100001100100000111001010000000001001001111111101110101001101000111000110111110000111110010000011100111011000011111001010111100101011100010111100000100011111100100010101101111001110111101000100101001010100000110101000010100100101101101111111101101100111000100100101001110111101101100001011101011010000000000111101100000000100011101111101010001110001011011111110001111100001111000100011011111100100010001101101011110101000100000111011111100101100001010010101111100100111101010010110101110010100001101011001001101011000000001111010011100110101100111110110011111111010000011111010111111100001011110001000010101000010110010110001001000111010001100111001001110010010101001101100011101100000010100101011011111100001010100010110001010001010111011010010101001101010101111110111000101011000100000001001110011110100111100111100 P
b11010000000101001111100110101000110010011110111000100101100010011110000100111111000011001100100010110110011000110000110010100110 R
b11010000000101001111100110101000110010011110111000100101100010011110000100111111000011001100100010110110011000110000110010100110 T
b1111100011000111001111101011011 Z
b1001010011000111001111101011011 N
b110110000000000000000000000000 S
b1001010011000111001111101011011 W
b1010 U
1%
#100
0%
#105
b1 _
b11101011 b
b10000100 e
b10001010100001001110101100000001 I
b10001010100001001110101100000001 \
b10001010 h
b1001 ^
b111100 a
b1001111 d
b11001111 g
b11001111010011110011110000001001 Y
b11001111010011110011110000001001 [
b11001111010011110011110000001001 M
b101011011111100001010100010110001010001010111011010010101001101010101111110111000101011000100000001001110011110100111100111100 R
b11111011111111100010010001001110 W
b0 U
1O
b0 X
1%
#110
0%
0*
1'
#115
b10110101011000111011011001110 @
b10010001000010111000001011100001 B
b11011111100001010000110101001110 D
b10110101011000111011011001110100100010000101110000010111000011101111110000101000011010100111011110010111011100011000101010111 /
b10110101011000111011011001110100100010000101110000010111000011101111110000101000011010100111011110010111011100011000101010111 >
b11110010111011100011000101010111 F
b1000111100100010011100010001011 ?
b10000001001010110001001111111000 A
b10011110100101111101011100101111 C
b10001001001010001100011101011011 E
b1000111100100010011100010001011100000010010101100010011111110001001111010010111110101110010111110001001001010001100011101011011 8
b1000111100100010011100010001011100000010010101100010011111110001001111010010111110101110010111110001001001010001100011101011011 =
b1000111001010111101011101011011100000011001011111000111100010111001111000101000001110001111100010001001100100010001001100101111 4
b11010000000101001111100110101000110010011110111000100101100010011110000100111111000011001100100010110110011000110000110010100110 (
b11010000000101001111100110101000110010011110111000100101100010011110000100111111000011001100100010110110011000110000110010100110 .
b11010000000101001111100110101000110010011110111000100101100010011110000100111111000011001100100010110110011000110000110010100110 !
b11010000000101001111100110101000110010011110111000100101100010011110000100111111000011001100100010110110011000110000110010100110 J
b1010 +
b1010 H
0O
bx T
0"
b1010 #
b1010 -
b1010 ;
b10010111001111110010111011110011010010000111100111100010000000100111111100010111001101000011000000111111111100100001111110001001 9
b1 <
1%
#120
0%
#125
b10101100011101110110011011110011000110011111101011011100001000010010100011010001001010010100000101010111010111000000000001101110 (
b10101100011101110110011011110011000110011111101011011100001000010010100011010001001010010100000101010111010111000000000001101110 .
b1010101010010000010000010100011 @
b10101100011010010100011110110010 B
b110100110011110110010110000 D
b1010101010010000010000010100011101011000110100101000111101100100000011010011001111011001011000010100011000010100111010011101010 /
b1010101010010000010000010100011101011000110100101000111101100100000011010011001111011001011000010100011000010100111010011101010 >
b10100011000010100111010011101010 F
b10101100011101110110011011110011000110011111101011011100001000010010100011010001001010010100000101010111010111000000000001101110 !
b10101100011101110110011011110011000110011111101011011100001000010010100011010001001010010100000101010111010111000000000001101110 J
b11111100010100101011011100001010 ?
b10010001111110011010000000110111 A
b1101111111011101100111011100111 C
b1010011001111001001010000111 E
b1001 +
b1001 H
b11111100010100101011011100001010100100011111100110100000001101110110111111101110110011101110011100001010011001111001001010000111 8
b11111100010100101011011100001010100100011111100110100000001101110110111111101110110011101110011100001010011001111001001010000111 =
b11111100111110011100111010000111100100011110111010010010000010100110111101100111101101110011011100001010010100101010000011100111 7
b10111010110110110001000000111101100010001111000101011110110000001111011101010100001001000000111110100101101100100011000100111001 4
b1001 #
b1001 -
b1001 ;
b10110101011000111011011001110100100010000101110000010111000011101111110000101000011010100111011110010111011100011000101010111 9
b10 <
1%
#130
0%
#135
b10011110000001010000101101001 @
b10111111110100110000011111110000 B
b1001111110011011010101110111100 D
b10011110000001010000101101001101111111101001100000111111100000100111111001101101010111011110011100101000011110100001010110100 /
b10011110000001010000101101001101111111101001100000111111100000100111111001101101010111011110011100101000011110100001010110100 >
b11100101000011110100001010110100 F
b11101010110100100111001100100001101101011000110110111010110100100011000100101011111101010110000001111111100011010010100100101111 (
b11101010110100100111001100100001101101011000110110111010110100100011000100101011111101010110000001111111100011010010100100101111 .
b1111101101110100011001011111001 ?
b1000011001101100010110001100 A
b10000100101111010110001001100101 C
b11011001011101100010110010001101 E
b11101010110100100111001100100001101101011000110110111010110100100011000100101011111101010110000001111111100011010010100100101111 !
b11101010110100100111001100100001101101011000110110111010110100100011000100101011111101010110000001111111100011010010100100101111 J
b1111101101110100011001011111001000010000110011011000101100011001000010010111101011000100110010111011001011101100010110010001101 8
b1111101101110100011001011111001000010000110011011000101100011001000010010111101011000100110010111011001011101100010110010001101 =
b1111101011001100110001010001101000010001011110100101100111110011000010001110110001100101000110011011001101110101100010101100101 7
b10111111100110100101001110000010000110011110010011111101011000000011011110110010000110011101000011011100100001110101110111000101 4
b1000 +
b1000 H
b1010101010010000010000010100011101011000110100101000111101100100000011010011001111011001011000010100011000010100111010011101010 9
b1000 #
b1000 -
b1000 ;
1%
#140
0%
#145
b10010001111101011111111010100011 @
b10011101001000100000010001101101 B
b1010010100100111101100010111101 D
b10010001111101011111111010100011100111010010001000000100011011010101001010010011110110001011110101000000100000000100110011001110 /
b10010001111101011111111010100011100111010010001000000100011011010101001010010011110110001011110101000000100000000100110011001110 >
b1000000100000000100110011001110 F
b1001110010101001111011100001110010111110101111111001001111100111000010010100110010011111011001001001110101001101101110001001111 (
b1001110010101001111011100001110010111110101111111001001111100111000010010100110010011111011001001001110101001101101110001001111 .
b10000001111001101011101100001010 ?
b1011110100100111111001000111100 A
b110111000110000101111010 C
b1001110011010010100110001011 E
b1001110010101001111011100001110010111110101111111001001111100111000010010100110010011111011001001001110101001101101110001001111 !
b1001110010101001111011100001110010111110101111111001001111100111000010010100110010011111011001001001110101001101101110001001111 J
b10000001111001101011101100001010010111101001001111110010001111000000000011011100011000010111101000001001110011010010100110001011 8
b10000001111001101011101100001010010111101001001111110010001111000000000011011100011000010111101000001001110011010010100110001011 =
b10000001100100110110000110001011010111101101110000101001000010100000000011001101101110110011110000001001111001101111001001111010 7
b1011101100101000101011001100111111000001000110011001110000000111100101101101011111001000000111010101011101010011001111011111011 4
b111 +
b111 H
b10011110000001010000101101001101111111101001100000111111100000100111111001101101010111011110011100101000011110100001010110100 9
b111 #
b111 -
b111 ;
1%
#150
0%
#155
b10111101010100001111101111110011 @
b10000110011110011000100000111000 B
b1000110011000100101000110110010 D
b10111101010100001111101111110011100001100111100110001000001110000100011001100010010100011011001010011000100000101000001100110100 /
b10111101010100001111101111110011100001100111100110001000001110000100011001100010010100011011001010011000100000101000001100110100 >
b10011000100000101000001100110100 F
b1101101100010001010001101111010000100010000101100111110111111011101101111111001100001100100000111001010000000001001001111111101 (
b1101101100010001010001101111010000100010000101100111110111111011101101111111001100001100100000111001010000000001001001111111101 .
b1111010010100110000111100001101 ?
b1000100101101101100010000000111 A
b1011010101010101101000100110111 C
b1000110000100111110110000011000 E
b1101101100010001010001101111010000100010000101100111110111111011101101111111001100001100100000111001010000000001001001111111101 !
b1101101100010001010001101111010000100010000101100111110111111011101101111111001100001100100000111001010000000001001001111111101 J
b1111010010100110000111100001101010001001011011011000100000001110101101010101010110100010011011101000110000100111110110000011000 8
b1111010010100110000111100001101010001001011011011000100000001110101101010101010110100010011011101000110000100111110110000011000 =
b1111010101101101101000100011000010001001010101011101100000011010101101000010011000011110000011101000110010100111100010000110111 7
b11111100011111010101110111011001100011000010100100111010100100001000100101101010010111101111110010001010100000001101111100110011 4
b110 +
b110 H
b10010001111101011111111010100011100111010010001000000100011011010101001010010011110110001011110101000000100000000100110011001110 9
b110 #
b110 -
b110 ;
1%
#160
0%
#165
b1110101001101010101000100100000 @
b11110101100101110100010010001011 B
b10101110011010100010111000101 D
b1110101001101010101000100100000111101011001011101000100100010110001010111001101010001011100010100110001101101101001100000101001 /
b1110101001101010101000100100000111101011001011101000100100010110001010111001101010001011100010100110001101101101001100000101001 >
b110001101101101001100000101001 F
b11010100110100011100011011111000011111001000001110011101100001111100101011110010101110001011110000010001111110010001010110111100 (
b11010100110100011100011011111000011111001000001110011101100001111100101011110010101110001011110000010001111110010001010110111100 .
b10011101100101101101000110110111 ?
b11100110100010000001101100111101 A
b1011001101111010110111010100110 C
b11000111010011100100011010100101 E
b11010100110100011100011011111000011111001000001110011101100001111100101011110010101110001011110000010001111110010001010110111100 !
b11010100110100011100011011111000011111001000001110011101100001111100101011110010101110001011110000010001111110010001010110111100 J
b10011101100101101101000110110111111001101000100000011011001111010101100110111101011011101010011011000111010011100100011010100101 8
b10011101100101101101000110110111111001101000100000011011001111010101100110111101011011101010011011000111010011100100011010100101 =
b10011101100010000110111010100101111001101011110101000110101101110101100101001110110100010011110111000111100101100001101110100110 7
b1101001100000010011110100001011111110101111101000010101101111111000110010010000111010010000111010001001011110111001011010001000 4
b101 +
b101 H
b10111101010100001111101111110011100001100111100110001000001110000100011001100010010100011011001010011000100000101000001100110100 9
b101 #
b101 -
b101 ;
1%
#170
0%
#175
b11011010011101110100000111110100 @
b1110001010000011010111100111110 B
b10101111101110000011100100110 D
b11011010011101110100000111110100011100010100000110101111001111100001010111110111000001110010011000001000111010110011100000000110 /
b11011010011101110100000111110100011100010100000110101111001111100001010111110111000001110010011000001000111010110011100000000110 >
b1000111010110011100000000110 F
b11101111010001001010010101000001101010000101001001011011011111111011011001110001001001010011101111011011000010111010110100000000 (
b11101111010001001010010101000001101010000101001001011011011111111011011001110001001001010011101111011011000010111010110100000000 .
b1010111111101011000001110111111 ?
b10100011100000110111100110110010 A
b1011001011010001100010111110111 C
b110000111010010000011101101111 E
b11101111010001001010010101000001101010000101001001011011011111111011011001110001001001010011101111011011000010111010110100000000 !
b11101111010001001010010101000001101010000101001001011011011111111011011001110001001001010011101111011011000010111010110100000000 J
b1010111111101011000001110111111101000111000001101111001101100100101100101101000110001011111011100110000111010010000011101101111 8
b1010111111101011000001110111111101000111000001101111001101100100101100101101000110001011111011100110000111010010000011101101111 =
b1010111100000111100010101101111101000110110100000000111101111110101100111101001100000111011001000110000111101010111100111110111 7
b10011010011100011111010001100001010111011100010100011111111101001010001110111100011000001111111011101010101111010011010100101001 4
b100 +
b100 H
b1110101001101010101000100100000111101011001011101000100100010110001010111001101010001011100010100110001101101101001100000101001 9
b100 #
b100 -
b100 ;
1%
#180
0%
#185
b10111100000100101001010000111010 @
b101101111101011111110110100000 B
b110011001000001111000110000101 D
b10111100000100101001010000111010001011011111010111111101101000000011001100100000111100011000010110001111000001111110111111001101 /
b10111100000100101001010000111010001011011111010111111101101000000011001100100000111100011000010110001111000001111110111111001101 >
b10001111000001111110111111001101 F
b111101100000000100011101111101010001110001011011111110001111100001111000100011011111100100010001101101011110101000100000111011 (
b111101100000000100011101111101010001110001011011111110001111100001111000100011011111100100010001101101011110101000100000111011 .
b1100101110010010010001010000000 ?
b11011000111001100101010011100000 A
b11000011101101111010000110010111 C
b1110011110001011101111110111101 E
b111101100000000100011101111101010001110001011011111110001111100001111000100011011111100100010001101101011110101000100000111011 !
b111101100000000100011101111101010001110001011011111110001111100001111000100011011111100100010001101101011110101000100000111011 J
b1100101110010010010001010000000110110001110011001010100111000001100001110110111101000011001011101110011110001011101111110111101 8
b1100101110010010010001010000000110110001110011001010100111000001100001110110111101000011001011101110011110001011101111110111101 =
b1100101111001101010000110111101110110001011011111011111100000001100001111000101001000101110000001110011110010010101010010010111 7
b11100111111101110000011010001001001101100101011101010001000000000000101111010100011110010110001001100101100100011011000000111101 4
b11 +
b11 H
b11011010011101110100000111110100011100010100000110101111001111100001010111110111000001110010011000001000111010110011100000000110 9
b11 #
b11 -
b11 ;
1%
#190
0%
#195
b10000101100000011001010011011101 @
b10011011011000001010101010001111 B
b11111000000010000111100000100 D
b10000101100000011001010011011101100110110110000010101010100011110001111100000001000011110000010001010111100100001010001011010011 /
b10000101100000011001010011011101100110110110000010101010100011110001111100000001000011110000010001010111100100001010001011010011 >
b1010111100100001010001011010011 F
b11110010110000101001010111110010011110101001011010111001010000110101100100110101100000000111101001110011010110011111011001111111 (
b11110010110000101001010111110010011110101001011010111001010000110101100100110101100000000111101001110011010110011111011001111111 .
b10010111000011000010001011000001 ?
b10100110100001010110001110011 A
b11000000011111000111011011110010 C
b1011011011000000011101001100110 E
b11110010110000101001010111110010011110101001011010111001010000110101100100110101100000000111101001110011010110011111011001111111 !
b11110010110000101001010111110010011110101001011010111001010000110101100100110101100000000111101001110011010110011111011001111111 J
b10010111000011000010001011000001000101001101000010101100011100111100000001111100011101101111001001011011011000000011101001100110 8
b10010111000011000010001011000001000101001101000010101100011100111100000001111100011101101111001001011011011000000011101001100110 =
b10010111110100000111011001100110000101000111110000111010110000011100000001100000001000100111001101011011000011001010110011110010 7
b1001110110100000000000111001000010101110110001101000100111000110110101000010101011100011111111111111100010111100001100110110010 4
b10 +
b10 H
b10111100000100101001010000111010001011011111010111111101101000000011001100100000111100011000010110001111000001111110111111001101 9
b10 #
b10 -
b10 ;
1%
#200
0%
