tb.vcd
$date
	Sat Feb 08 19:40:15 2025
$end
$version
	Icarus Verilog
$end
$timescale
	1s
$end
$scope module tb $end
$var wire 1 ! tdo $end
$var wire 128 " ke_round_key [127:0] $end
$var wire 4 # e_round [3:0] $end
$var wire 1 $ e_dn $end
$var wire 4 % d_round [3:0] $end
$var wire 128 & d_plaintext [127:0] $end
$var wire 1 ' d_dn $end
$var wire 128 ( ciphertext [127:0] $end
$var wire 128 ) c [127:0] $end
$var reg 128 * a [127:0] $end
$var reg 128 + b [127:0] $end
$var reg 1 , check $end
$var reg 1 - clk $end
$var reg 1 . d_en $end
$var reg 128 / d_round_key [127:0] $end
$var reg 1 0 e_en $end
$var reg 128 1 e_round_key [127:0] $end
$var reg 128 2 encrypted_result [127:0] $end
$var reg 128 3 input_key [127:0] $end
$var reg 1 4 ke_en $end
$var reg 4 5 ke_round [3:0] $end
$var reg 128 6 plaintext [127:0] $end
$var reg 1 7 tdi $end
$var reg 1 8 tms $end
$var reg 1 9 trst $end
$var integer 32 : i [31:0] $end
$scope module d_inst $end
$var wire 128 ; cipherText [127:0] $end
$var wire 1 - clk $end
$var wire 1 . en $end
$var wire 4 < round [3:0] $end
$var wire 128 = round_key [127:0] $end
$var wire 128 > invBSOut [127:0] $end
$var parameter 2 ? final $end
$var parameter 2 @ first $end
$var parameter 2 A idle $end
$var parameter 2 B main $end
$var reg 128 C KAOut [127:0] $end
$var reg 1 ' dn $end
$var reg 1 D done $end
$var reg 1 E done_d $end
$var reg 128 F invMCOut [127:0] $end
$var reg 128 G invSROut [127:0] $end
$var reg 128 H old_block [127:0] $end
$var reg 128 I plainText [127:0] $end
$var reg 4 J round_nm [3:0] $end
$var reg 2 K state [1:0] $end
$scope function addroundkey $end
$upscope $end
$scope function gm09 $end
$upscope $end
$scope function gm11 $end
$upscope $end
$scope function gm13 $end
$upscope $end
$scope function gm14 $end
$upscope $end
$scope function gm2 $end
$upscope $end
$scope function gm3 $end
$upscope $end
$scope function gm4 $end
$upscope $end
$scope function gm8 $end
$upscope $end
$scope function inv_mixcolumns $end
$upscope $end
$scope function inv_mixw $end
$upscope $end
$scope function inv_shiftrows $end
$upscope $end
$scope module ibs_inst $end
$var wire 128 L in [127:0] $end
$var wire 128 M out [127:0] $end
$scope module invSB_inst_1 $end
$var wire 32 N in [31:0] $end
$var wire 32 O out [31:0] $end
$upscope $end
$scope module invSB_inst_2 $end
$var wire 32 P in [31:0] $end
$var wire 32 Q out [31:0] $end
$upscope $end
$scope module invSB_inst_3 $end
$var wire 32 R in [31:0] $end
$var wire 32 S out [31:0] $end
$upscope $end
$scope module invSB_inst_4 $end
$var wire 32 T in [31:0] $end
$var wire 32 U out [31:0] $end
$upscope $end
$upscope $end
$upscope $end
$scope module e_inst $end
$var wire 1 - clk $end
$var wire 1 0 en $end
$var wire 128 V plaintext [127:0] $end
$var wire 4 W round [3:0] $end
$var wire 128 X round_key [127:0] $end
$var wire 128 Y byteSubOut [127:0] $end
$var parameter 2 Z final $end
$var parameter 2 [ idle $end
$var parameter 2 \ main $end
$var reg 128 ] KAOut [127:0] $end
$var reg 128 ^ MCOut [127:0] $end
$var reg 128 _ SROut [127:0] $end
$var reg 128 ` ciphertext [127:0] $end
$var reg 1 $ dn $end
$var reg 1 a done $end
$var reg 2 b next_state [1:0] $end
$var reg 128 c old_block [127:0] $end
$var reg 4 d round_nm [3:0] $end
$var reg 2 e state [1:0] $end
$scope function addKey $end
$upscope $end
$scope function gm2 $end
$var reg 8 f x [7:0] $end
$upscope $end
$scope function gm3 $end
$var reg 8 g x [7:0] $end
$upscope $end
$scope function mixcolumns $end
$upscope $end
$scope function mixw $end
$scope begin mixw $end
$upscope $end
$upscope $end
$scope function shiftrows $end
$upscope $end
$scope module bs_inst $end
$var wire 128 h in [127:0] $end
$var wire 128 i out [127:0] $end
$scope module s0 $end
$var wire 32 j sboxw [31:0] $end
$var wire 32 k new_sboxw [31:0] $end
$upscope $end
$scope module s1 $end
$var wire 32 l sboxw [31:0] $end
$var wire 32 m new_sboxw [31:0] $end
$upscope $end
$scope module s2 $end
$var wire 32 n sboxw [31:0] $end
$var wire 32 o new_sboxw [31:0] $end
$upscope $end
$scope module s3 $end
$var wire 32 p sboxw [31:0] $end
$var wire 32 q new_sboxw [31:0] $end
$upscope $end
$upscope $end
$upscope $end
$scope module ke_inst $end
$var wire 1 - clk $end
$var wire 1 4 en $end
$var wire 128 r input_key [127:0] $end
$var wire 4 s round [3:0] $end
$var wire 32 t subByteOut [31:0] $end
$var wire 128 u round_key [127:0] $end
$var parameter 2 v idle $end
$var parameter 2 w main $end
$var reg 32 x circ [31:0] $end
$var reg 32 y circSub [31:0] $end
$var reg 1 z done $end
$var reg 1408 { key_reg [1407:0] $end
$var reg 2 | next_state [1:0] $end
$var reg 128 } old_round_key [127:0] $end
$var reg 32 ~ rc_check [31:0] $end
$var reg 128 !" round_key_new [127:0] $end
$var reg 4 "" round_nm [3:0] $end
$var reg 128 #" save [127:0] $end
$var reg 32 $" sbo [31:0] $end
$var reg 2 %" state [1:0] $end
$var reg 32 &" subByteIn [31:0] $end
$var reg 32 '" xored [31:0] $end
$scope function round_cf $end
$upscope $end
$scope module sb_inst $end
$var wire 32 (" sboxw [31:0] $end
$var wire 32 )" new_sboxw [31:0] $end
$upscope $end
$upscope $end
$scope module top_inst $end
$var wire 128 *" a [127:0] $end
$var wire 128 +" b [127:0] $end
$var wire 128 ," c [127:0] $end
$var wire 1 - clk $end
$var wire 128 -" input_key [127:0] $end
$var wire 1 7 tdi $end
$var wire 1 8 tms $end
$var wire 1 9 trst $end
$var wire 128 ." round_key [127:0] $end
$var wire 4 /" e_round [3:0] $end
$var wire 1 0" e_dn $end
$var wire 128 1" e_ciphertext [127:0] $end
$var wire 4 2" d_round [3:0] $end
$var wire 128 3" d_plaintext [127:0] $end
$var wire 1 4" d_dn $end
$var wire 128 5" c_out [127:0] $end
$var parameter 4 6" capture $end
$var parameter 4 7" d $end
$var parameter 4 8" e $end
$var parameter 4 9" idle $end
$var parameter 4 :" normal $end
$var parameter 4 ;" serial $end
$var parameter 4 <" w1 $end
$var parameter 4 =" w2 $end
$var parameter 4 >" w3 $end
$var parameter 4 ?" w4 $end
$var reg 128 @" c_a [127:0] $end
$var reg 128 A" c_b [127:0] $end
$var reg 128 B" d_ciphertext [127:0] $end
$var reg 1 C" d_en $end
$var reg 128 D" d_round_key [127:0] $end
$var reg 1 E" e_en $end
$var reg 128 F" e_plaintext [127:0] $end
$var reg 128 G" e_round_key [127:0] $end
$var reg 1 H" ke_en $end
$var reg 4 I" ke_round [3:0] $end
$var reg 4 J" state [3:0] $end
$var reg 1 ! tdo $end
$var integer 32 K" i [31:0] $end
$scope module clb_inst $end
$var wire 128 L" a [127:0] $end
$var wire 128 M" b [127:0] $end
$var wire 128 N" c [127:0] $end
$upscope $end
$scope module d_inst $end
$var wire 128 O" cipherText [127:0] $end
$var wire 1 - clk $end
$var wire 1 C" en $end
$var wire 4 P" round [3:0] $end
$var wire 128 Q" round_key [127:0] $end
$var wire 128 R" invBSOut [127:0] $end
$var parameter 2 S" final $end
$var parameter 2 T" first $end
$var parameter 2 U" idle $end
$var parameter 2 V" main $end
$var reg 128 W" KAOut [127:0] $end
$var reg 1 4" dn $end
$var reg 1 X" done $end
$var reg 1 Y" done_d $end
$var reg 128 Z" invMCOut [127:0] $end
$var reg 128 [" invSROut [127:0] $end
$var reg 128 \" old_block [127:0] $end
$var reg 128 ]" plainText [127:0] $end
$var reg 4 ^" round_nm [3:0] $end
$var reg 2 _" state [1:0] $end
$scope function addroundkey $end
$upscope $end
$scope function gm09 $end
$upscope $end
$scope function gm11 $end
$upscope $end
$scope function gm13 $end
$upscope $end
$scope function gm14 $end
$upscope $end
$scope function gm2 $end
$upscope $end
$scope function gm3 $end
$upscope $end
$scope function gm4 $end
$upscope $end
$scope function gm8 $end
$upscope $end
$scope function inv_mixcolumns $end
$upscope $end
$scope function inv_mixw $end
$upscope $end
$scope function inv_shiftrows $end
$upscope $end
$scope module ibs_inst $end
$var wire 128 `" in [127:0] $end
$var wire 128 a" out [127:0] $end
$scope module invSB_inst_1 $end
$var wire 32 b" in [31:0] $end
$var wire 32 c" out [31:0] $end
$upscope $end
$scope module invSB_inst_2 $end
$var wire 32 d" in [31:0] $end
$var wire 32 e" out [31:0] $end
$upscope $end
$scope module invSB_inst_3 $end
$var wire 32 f" in [31:0] $end
$var wire 32 g" out [31:0] $end
$upscope $end
$scope module invSB_inst_4 $end
$var wire 32 h" in [31:0] $end
$var wire 32 i" out [31:0] $end
$upscope $end
$upscope $end
$upscope $end
$scope module e_inst $end
$var wire 1 - clk $end
$var wire 1 E" en $end
$var wire 128 j" plaintext [127:0] $end
$var wire 4 k" round [3:0] $end
$var wire 128 l" round_key [127:0] $end
$var wire 128 m" byteSubOut [127:0] $end
$var parameter 2 n" final $end
$var parameter 2 o" idle $end
$var parameter 2 p" main $end
$var reg 128 q" KAOut [127:0] $end
$var reg 128 r" MCOut [127:0] $end
$var reg 128 s" SROut [127:0] $end
$var reg 128 t" ciphertext [127:0] $end
$var reg 1 0" dn $end
$var reg 1 u" done $end
$var reg 2 v" next_state [1:0] $end
$var reg 128 w" old_block [127:0] $end
$var reg 4 x" round_nm [3:0] $end
$var reg 2 y" state [1:0] $end
$scope function addKey $end
$upscope $end
$scope function gm2 $end
$var reg 8 z" x [7:0] $end
$upscope $end
$scope function gm3 $end
$var reg 8 {" x [7:0] $end
$upscope $end
$scope function mixcolumns $end
$upscope $end
$scope function mixw $end
$scope begin mixw $end
$upscope $end
$upscope $end
$scope function shiftrows $end
$upscope $end
$scope module bs_inst $end
$var wire 128 |" in [127:0] $end
$var wire 128 }" out [127:0] $end
$scope module s0 $end
$var wire 32 ~" sboxw [31:0] $end
$var wire 32 !# new_sboxw [31:0] $end
$upscope $end
$scope module s1 $end
$var wire 32 "# sboxw [31:0] $end
$var wire 32 ## new_sboxw [31:0] $end
$upscope $end
$scope module s2 $end
$var wire 32 $# sboxw [31:0] $end
$var wire 32 %# new_sboxw [31:0] $end
$upscope $end
$scope module s3 $end
$var wire 32 &# sboxw [31:0] $end
$var wire 32 '# new_sboxw [31:0] $end
$upscope $end
$upscope $end
$upscope $end
$scope module ke_inst $end
$var wire 1 - clk $end
$var wire 1 H" en $end
$var wire 128 (# input_key [127:0] $end
$var wire 4 )# round [3:0] $end
$var wire 32 *# subByteOut [31:0] $end
$var wire 128 +# round_key [127:0] $end
$var parameter 2 ,# idle $end
$var parameter 2 -# main $end
$var reg 32 .# circ [31:0] $end
$var reg 32 /# circSub [31:0] $end
$var reg 1 0# done $end
$var reg 1408 1# key_reg [1407:0] $end
$var reg 2 2# next_state [1:0] $end
$var reg 128 3# old_round_key [127:0] $end
$var reg 32 4# rc_check [31:0] $end
$var reg 128 5# round_key_new [127:0] $end
$var reg 4 6# round_nm [3:0] $end
$var reg 128 7# save [127:0] $end
$var reg 32 8# sbo [31:0] $end
$var reg 2 9# state [1:0] $end
$var reg 32 :# subByteIn [31:0] $end
$var reg 32 ;# xored [31:0] $end
$scope function round_cf $end
$upscope $end
$scope module sb_inst $end
$var wire 32 <# sboxw [31:0] $end
$var wire 32 =# new_sboxw [31:0] $end
$upscope $end
$upscope $end
$upscope $end
$upscope $end
$enddefinitions $end
$comment Show the parameter values. $end
$dumpall
b1 -#
b0 ,#
b1 p"
b0 o"
b10 n"
b10 V"
b0 U"
b1 T"
b11 S"
b1001 ?"
b1000 >"
b111 ="
b110 <"
b10 ;"
b0 :"
b1 9"
b100 8"
b101 7"
b11 6"
b1 w
b0 v
b1 \
b0 [
b10 Z
b10 B
b0 A
b1 @
b11 ?
$end
#0
$dumpvars
bx =#
bx <#
bx ;#
bx :#
b0 9#
bx 8#
bx 7#
b0 6#
bx 5#
bx 4#
bx 3#
b0 2#
bx 1#
00#
bx /#
bx .#
bx +#
bx *#
bx )#
b101011011111100001010100010110001010001010111011010010101001101010101111110111000101011000100000001001110011110100111100111100 (#
bx '#
bx &#
bx %#
bx $#
bx ##
bx "#
bx !#
bx ~"
bx }"
bx |"
bx {"
bx z"
b0 y"
bx x"
bx w"
b0 v"
0u"
bx t"
bx s"
bx r"
bx q"
bx m"
bx l"
bx k"
bx j"
bx i"
bx h"
bx g"
bx f"
bx e"
bx d"
bx c"
bx b"
bx a"
bx `"
b0 _"
b1010 ^"
bx ]"
bx \"
bx ["
bx Z"
0Y"
0X"
bx W"
bx R"
bx Q"
b1010 P"
bx O"
bx N"
bx M"
bx L"
bx K"
b0 J"
bx I"
0H"
bx G"
bx F"
0E"
bx D"
0C"
bx B"
bx A"
bx @"
bx 5"
x4"
bx 3"
b1010 2"
bx 1"
x0"
bx /"
bx ."
b101011011111100001010100010110001010001010111011010010101001101010101111110111000101011000100000001001110011110100111100111100 -"
bx ,"
b1000 +"
b111 *"
bx )"
bx ("
bx '"
bx &"
b0 %"
bx $"
bx #"
b0 ""
bx !"
bx ~
bx }
b0 |
bx {
0z
bx y
bx x
bx u
bx t
bx s
b101011011111100001010100010110001010001010111011010010101001101010101111110111000101011000100000001001110011110100111100111100 r
bx q
bx p
bx o
bx n
bx m
bx l
bx k
bx j
bx i
bx h
bx g
bx f
b0 e
bx d
bx c
b0 b
0a
bx `
bx _
bx ^
bx ]
bx Y
bx X
bx W
b111 V
bx U
bx T
bx S
bx R
bx Q
bx P
bx O
bx N
bx M
bx L
b0 K
b1010 J
bx I
bx H
bx G
bx F
0E
0D
bx C
bx >
bx =
b1010 <
bx ;
bx :
09
08
x7
b111 6
bx 5
x4
b101011011111100001010100010110001010001010111011010010101001101010101111110111000101011000100000001001110011110100111100111100 3
bx 2
bx 1
00
bx /
0.
0-
0,
b1000 +
b111 *
bx )
bx (
x'
bx &
b1010 %
x$
bx #
bx "
x!
$end
#5
b10001010100001001110101100000001 *#
b10001010100001001110101100000001 =#
b1 2#
b11001111010011110011110000001001 :#
b11001111010011110011110000001001 <#
b11001111010011110011110000001001 .#
b101011011111100001010100010110001010001010111011010010101001101010101111110111000101011000100000001001110011110100111100111100 3#
bx00101011011111100001010100010110001010001010111011010010101001101010101111110111000101011000100000001001110011110100111100111100 1#
bx 2"
bx P"
bx ^"
00"
b0 /"
b0 k"
b0 x"
1H"
0$
b0 #
b0 W
b0 d
b1 ""
bx %
bx <
bx J
b1010000000 K"
1-
#10
b10001010100001001110101100000001 t
b10001010100001001110101100000001 )"
b1 |
b11001111010011110011110000001001 &"
b11001111010011110011110000001001 ("
b11001111010011110011110000001001 x
b101011011111100001010100010110001010001010111011010010101001101010101111110111000101011000100000001001110011110100111100111100 }
bx00101011011111100001010100010110001010001010111011010010101001101010101111110111000101011000100000001001110011110100111100111100xxxxxxxxxxxxxxxxxxxxxxxxxxxxxxxxxxxxxxxxxxxxxxxxxxxxxxxxxxxxxxxxxxxxxxxxxxxxxxxxxxxxxxxxxxxxxxxxxxxxxxxxxxxxxxxxxxxxxxxxxxxxxxxx {
14
0-
#15
b1010000001110000110101111100101 t
b1010000001110000110101111100101 )"
b1010000001110000110101111100101 *#
b1010000001110000110101111100101 =#
b1101100011101100000010100101010 &"
b1101100011101100000010100101010 ("
b1101100011101100000010100101010 x
bx10100000111110101111111000010111100010000101010000101100101100010010001110100011001110010011100100101010011011000111011000000101xxxxxxxxxxxxxxxxxxxxxxxxxxxxxxxxxxxxxxxxxxxxxxxxxxxxxxxxxxxxxxxxxxxxxxxxxxxxxxxxxxxxxxxxxxxxxxxxxxxxxxxxxxxxxxxxxxxxxxxxxxxxxxxx {
b10100000111110101111111000010111100010000101010000101100101100010010001110100011001110010011100100101010011011000111011000000101 }
b10100000111110101111111000010111100010000101010000101100101100010010001110100011001110010011100100101010011011000111011000000101 !"
b10001011100001001110101100000001 '"
b10001010100001001110101100000001 y
b1000000000000000000000000 ~
b1101100011101100000010100101010 :#
b1101100011101100000010100101010 <#
b1101100011101100000010100101010 .#
bx1010000011111010111111100001011110001000010101000010110010110001001000111010001100111001001110010010101001101100011101100000010100101011011111100001010100010110001010001010111011010010101001101010101111110111000101011000100000001001110011110100111100111100 1#
b10100000111110101111111000010111100010000101010000101100101100010010001110100011001110010011100100101010011011000111011000000101 3#
b10100000111110101111111000010111100010000101010000101100101100010010001110100011001110010011100100101010011011000111011000000101 5#
b10001011100001001110101100000001 ;#
b10001010100001001110101100000001 /#
b1000000000000000000000000 4#
b10001010100001001110101100000001 $"
b1 %"
b10001010100001001110101100000001 8#
b1 6#
b1 9#
b1010000000 K"
1-
#20
0-
#25
b11001011010000101101001010001111 *#
b11001011010000101101001010001111 =#
b11001011010000101101001010001111 t
b11001011010000101101001010001111 )"
b1011001111101100111111101110011 :#
b1011001111101100111111101110011 <#
b1011001111101100111111101110011 .#
bx111100101100001010010101111100100111101010010110101110010100001101011001001101011000000001111010011100110101100111110110011111111010000011111010111111100001011110001000010101000010110010110001001000111010001100111001001110010010101001101100011101100000010100101011011111100001010100010110001010001010111011010010101001101010101111110111000101011000100000001001110011110100111100111100 1#
b11110010110000101001010111110010011110101001011010111001010000110101100100110101100000000111101001110011010110011111011001111111 3#
b11110010110000101001010111110010011110101001011010111001010000110101100100110101100000000111101001110011010110011111011001111111 5#
b1010010001110000110101111100101 ;#
b1010000001110000110101111100101 /#
b10000000000000000000000000 4#
b1011001111101100111111101110011 &"
b1011001111101100111111101110011 ("
b1011001111101100111111101110011 x
bx1111001011000010100101011111001001111010100101101011100101000011010110010011010110000000011110100111001101011001111101100111111110100000111110101111111000010111100010000101010000101100101100010010001110100011001110010011100100101010011011000111011000000101xxxxxxxxxxxxxxxxxxxxxxxxxxxxxxxxxxxxxxxxxxxxxxxxxxxxxxxxxxxxxxxxxxxxxxxxxxxxxxxxxxxxxxxxxxxxxxxxxxxxxxxxxxxxxxxxxxxxxxxxxxxxxxxx {
b11110010110000101001010111110010011110101001011010111001010000110101100100110101100000000111101001110011010110011111011001111111 }
b11110010110000101001010111110010011110101001011010111001010000110101100100110101100000000111101001110011010110011111011001111111 !"
b1010010001110000110101111100101 '"
b1010000001110000110101111100101 y
b10000000000000000000000000 ~
b1010000001110000110101111100101 8#
b10 6#
b1010000001110000110101111100101 $"
b10 ""
b1010000000 K"
1-
#30
0-
#35
b11011010110001001110001000111100 t
b11011010110001001110001000111100 )"
b11011010110001001110001000111100 *#
b11011010110001001110001000111100 =#
b1111010100010000011101101101101 &"
b1111010100010000011101101101101 ("
b1111010100010000011101101101101 x
bx001111011000000001000111011111010100011100010110111111100011111000011110001000110111111001000100011011010111101010001000001110111111001011000010100101011111001001111010100101101011100101000011010110010011010110000000011110100111001101011001111101100111111110100000111110101111111000010111100010000101010000101100101100010010001110100011001110010011100100101010011011000111011000000101xxxxxxxxxxxxxxxxxxxxxxxxxxxxxxxxxxxxxxxxxxxxxxxxxxxxxxxxxxxxxxxxxxxxxxxxxxxxxxxxxxxxxxxxxxxxxxxxxxxxxxxxxxxxxxxxxxxxxxxxxxxxxxxx {
b111101100000000100011101111101010001110001011011111110001111100001111000100011011111100100010001101101011110101000100000111011 }
b111101100000000100011101111101010001110001011011111110001111100001111000100011011111100100010001101101011110101000100000111011 !"
b11001111010000101101001010001111 '"
b11001011010000101101001010001111 y
b100000000000000000000000000 ~
b1111010100010000011101101101101 :#
b1111010100010000011101101101101 <#
b1111010100010000011101101101101 .#
bx00111101100000000100011101111101010001110001011011111110001111100001111000100011011111100100010001101101011110101000100000111011111100101100001010010101111100100111101010010110101110010100001101011001001101011000000001111010011100110101100111110110011111111010000011111010111111100001011110001000010101000010110010110001001000111010001100111001001110010010101001101100011101100000010100101011011111100001010100010110001010001010111011010010101001101010101111110111000101011000100000001001110011110100111100111100 1#
b111101100000000100011101111101010001110001011011111110001111100001111000100011011111100100010001101101011110101000100000111011 3#
b111101100000000100011101111101010001110001011011111110001111100001111000100011011111100100010001101101011110101000100000111011 5#
b11001111010000101101001010001111 ;#
b11001011010000101101001010001111 /#
b100000000000000000000000000 4#
b10100000111110101111111000010111100010000101010000101100101100010010001110100011001110010011100100101010011011000111011000000101 #"
b11001011010000101101001010001111 $"
b11 ""
b10100000111110101111111000010111100010000101010000101100101100010010001110100011001110010011100100101010011011000111011000000101 7#
b11001011010000101101001010001111 8#
b11 6#
b1010000000 K"
1-
#40
0-
#45
b101011100101010110001110111001 *#
b101011100101010110001110111001 =#
b101011100101010110001110111001 t
b101011100101010110001110111001 )"
b1011101011010000000011011011 :#
b1011101011010000000011011011 <#
b1011101011010000000011011011 .#
bx1110111101000100101001010100000110101000010100100101101101111111101101100111000100100101001110111101101100001011101011010000000000111101100000000100011101111101010001110001011011111110001111100001111000100011011111100100010001101101011110101000100000111011111100101100001010010101111100100111101010010110101110010100001101011001001101011000000001111010011100110101100111110110011111111010000011111010111111100001011110001000010101000010110010110001001000111010001100111001001110010010101001101100011101100000010100101011011111100001010100010110001010001010111011010010101001101010101111110111000101011000100000001001110011110100111100111100 1#
b11101111010001001010010101000001101010000101001001011011011111111011011001110001001001010011101111011011000010111010110100000000 3#
b11101111010001001010010101000001101010000101001001011011011111111011011001110001001001010011101111011011000010111010110100000000 5#
b11010010110001001110001000111100 ;#
b11011010110001001110001000111100 /#
b1000000000000000000000000000 4#
b1011101011010000000011011011 &"
b1011101011010000000011011011 ("
b1011101011010000000011011011 x
bx11101111010001001010010101000001101010000101001001011011011111111011011001110001001001010011101111011011000010111010110100000000001111011000000001000111011111010100011100010110111111100011111000011110001000110111111001000100011011010111101010001000001110111111001011000010100101011111001001111010100101101011100101000011010110010011010110000000011110100111001101011001111101100111111110100000111110101111111000010111100010000101010000101100101100010010001110100011001110010011100100101010011011000111011000000101xxxxxxxxxxxxxxxxxxxxxxxxxxxxxxxxxxxxxxxxxxxxxxxxxxxxxxxxxxxxxxxxxxxxxxxxxxxxxxxxxxxxxxxxxxxxxxxxxxxxxxxxxxxxxxxxxxxxxxxxxxxxxxxx {
b11101111010001001010010101000001101010000101001001011011011111111011011001110001001001010011101111011011000010111010110100000000 }
b11101111010001001010010101000001101010000101001001011011011111111011011001110001001001010011101111011011000010111010110100000000 !"
b11010010110001001110001000111100 '"
b11011010110001001110001000111100 y
b1000000000000000000000000000 ~
b11011010110001001110001000111100 8#
b100 6#
b11011010110001001110001000111100 $"
b100 ""
b1010000000 K"
1-
#50
0-
#55
b10011001010110010110010110000010 t
b10011001010110010110010110000010 )"
b10011001010110010110010110000010 *#
b10011001010110010110010110000010 =#
b11111001000101011011110000010001 &"
b11111001000101011011110000010001 ("
b11111001000101011011110000010001 x
bx1101010011010001110001101111100001111100100000111001110110000111110010101111001010111000101111000001000111111001000101011011110011101111010001001010010101000001101010000101001001011011011111111011011001110001001001010011101111011011000010111010110100000000001111011000000001000111011111010100011100010110111111100011111000011110001000110111111001000100011011010111101010001000001110111111001011000010100101011111001001111010100101101011100101000011010110010011010110000000011110100111001101011001111101100111111110100000111110101111111000010111100010000101010000101100101100010010001110100011001110010011100100101010011011000111011000000101xxxxxxxxxxxxxxxxxxxxxxxxxxxxxxxxxxxxxxxxxxxxxxxxxxxxxxxxxxxxxxxxxxxxxxxxxxxxxxxxxxxxxxxxxxxxxxxxxxxxxxxxxxxxxxxxxxxxxxxxxxxxxxxx {
b11010100110100011100011011111000011111001000001110011101100001111100101011110010101110001011110000010001111110010001010110111100 }
b11010100110100011100011011111000011111001000001110011101100001111100101011110010101110001011110000010001111110010001010110111100 !"
b111011100101010110001110111001 '"
b101011100101010110001110111001 y
b10000000000000000000000000000 ~
b11111001000101011011110000010001 :#
b11111001000101011011110000010001 <#
b11111001000101011011110000010001 .#
bx110101001101000111000110111110000111110010000011100111011000011111001010111100101011100010111100000100011111100100010101101111001110111101000100101001010100000110101000010100100101101101111111101101100111000100100101001110111101101100001011101011010000000000111101100000000100011101111101010001110001011011111110001111100001111000100011011111100100010001101101011110101000100000111011111100101100001010010101111100100111101010010110101110010100001101011001001101011000000001111010011100110101100111110110011111111010000011111010111111100001011110001000010101000010110010110001001000111010001100111001001110010010101001101100011101100000010100101011011111100001010100010110001010001010111011010010101001101010101111110111000101011000100000001001110011110100111100111100 1#
b11010100110100011100011011111000011111001000001110011101100001111100101011110010101110001011110000010001111110010001010110111100 3#
b11010100110100011100011011111000011111001000001110011101100001111100101011110010101110001011110000010001111110010001010110111100 5#
b111011100101010110001110111001 ;#
b101011100101010110001110111001 /#
b10000000000000000000000000000 4#
b101011100101010110001110111001 $"
b101 ""
b101011100101010110001110111001 8#
b101 6#
b1010000000 K"
1-
#60
0-
#65
b1100011110111000101010001110100 *#
b1100011110111000101010001110100 =#
b1100011110111000101010001110100 t
b1100011110111000101010001110100 )"
b100100111111110111001010 :#
b100100111111110111001010 <#
b100100111111110111001010 .#
bx01101101100010001010001101111010000100010000101100111110111111011101101111111001100001100100000111001010000000001001001111111101110101001101000111000110111110000111110010000011100111011000011111001010111100101011100010111100000100011111100100010101101111001110111101000100101001010100000110101000010100100101101101111111101101100111000100100101001110111101101100001011101011010000000000111101100000000100011101111101010001110001011011111110001111100001111000100011011111100100010001101101011110101000100000111011111100101100001010010101111100100111101010010110101110010100001101011001001101011000000001111010011100110101100111110110011111111010000011111010111111100001011110001000010101000010110010110001001000111010001100111001001110010010101001101100011101100000010100101011011111100001010100010110001010001010111011010010101001101010101111110111000101011000100000001001110011110100111100111100 1#
b1101101100010001010001101111010000100010000101100111110111111011101101111111001100001100100000111001010000000001001001111111101 3#
b1101101100010001010001101111010000100010000101100111110111111011101101111111001100001100100000111001010000000001001001111111101 5#
b10111001010110010110010110000010 ;#
b10011001010110010110010110000010 /#
b100000000000000000000000000000 4#
b100100111111110111001010 &"
b100100111111110111001010 ("
b100100111111110111001010 x
bx011011011000100010100011011110100001000100001011001111101111110111011011111110011000011001000001110010100000000010010011111111011101010011010001110001101111100001111100100000111001110110000111110010101111001010111000101111000001000111111001000101011011110011101111010001001010010101000001101010000101001001011011011111111011011001110001001001010011101111011011000010111010110100000000001111011000000001000111011111010100011100010110111111100011111000011110001000110111111001000100011011010111101010001000001110111111001011000010100101011111001001111010100101101011100101000011010110010011010110000000011110100111001101011001111101100111111110100000111110101111111000010111100010000101010000101100101100010010001110100011001110010011100100101010011011000111011000000101xxxxxxxxxxxxxxxxxxxxxxxxxxxxxxxxxxxxxxxxxxxxxxxxxxxxxxxxxxxxxxxxxxxxxxxxxxxxxxxxxxxxxxxxxxxxxxxxxxxxxxxxxxxxxxxxxxxxxxxxxxxxxxxx {
b1101101100010001010001101111010000100010000101100111110111111011101101111111001100001100100000111001010000000001001001111111101 }
b1101101100010001010001101111010000100010000101100111110111111011101101111111001100001100100000111001010000000001001001111111101 !"
b10111001010110010110010110000010 '"
b10011001010110010110010110000010 y
b100000000000000000000000000000 ~
b10011001010110010110010110000010 8#
b110 6#
b10011001010110010110010110000010 $"
b110 ""
b1010000000 K"
1-
#70
0-
#75
b100100100001101000010000101111 t
b100100100001101000010000101111 )"
b100100100001101000010000101111 *#
b100100100001101000010000101111 =#
b10100110110111000100111101001110 &"
b10100110110111000100111101001110 ("
b10100110110111000100111101001110 x
bx01001110010101001111011100001110010111110101111111001001111100111000010010100110010011111011001001001110101001101101110001001111011011011000100010100011011110100001000100001011001111101111110111011011111110011000011001000001110010100000000010010011111111011101010011010001110001101111100001111100100000111001110110000111110010101111001010111000101111000001000111111001000101011011110011101111010001001010010101000001101010000101001001011011011111111011011001110001001001010011101111011011000010111010110100000000001111011000000001000111011111010100011100010110111111100011111000011110001000110111111001000100011011010111101010001000001110111111001011000010100101011111001001111010100101101011100101000011010110010011010110000000011110100111001101011001111101100111111110100000111110101111111000010111100010000101010000101100101100010010001110100011001110010011100100101010011011000111011000000101xxxxxxxxxxxxxxxxxxxxxxxxxxxxxxxxxxxxxxxxxxxxxxxxxxxxxxxxxxxxxxxxxxxxxxxxxxxxxxxxxxxxxxxxxxxxxxxxxxxxxxxxxxxxxxxxxxxxxxxxxxxxxxxx {
b1001110010101001111011100001110010111110101111111001001111100111000010010100110010011111011001001001110101001101101110001001111 }
b1001110010101001111011100001110010111110101111111001001111100111000010010100110010011111011001001001110101001101101110001001111 !"
b100011110111000101010001110100 '"
b1100011110111000101010001110100 y
b1000000000000000000000000000000 ~
b10100110110111000100111101001110 :#
b10100110110111000100111101001110 <#
b10100110110111000100111101001110 .#
bx0100111001010100111101110000111001011111010111111100100111110011100001001010011001001111101100100100111010100110110111000100111101101101100010001010001101111010000100010000101100111110111111011101101111111001100001100100000111001010000000001001001111111101110101001101000111000110111110000111110010000011100111011000011111001010111100101011100010111100000100011111100100010101101111001110111101000100101001010100000110101000010100100101101101111111101101100111000100100101001110111101101100001011101011010000000000111101100000000100011101111101010001110001011011111110001111100001111000100011011111100100010001101101011110101000100000111011111100101100001010010101111100100111101010010110101110010100001101011001001101011000000001111010011100110101100111110110011111111010000011111010111111100001011110001000010101000010110010110001001000111010001100111001001110010010101001101100011101100000010100101011011111100001010100010110001010001010111011010010101001101010101111110111000101011000100000001001110011110100111100111100 1#
b1001110010101001111011100001110010111110101111111001001111100111000010010100110010011111011001001001110101001101101110001001111 3#
b1001110010101001111011100001110010111110101111111001001111100111000010010100110010011111011001001001110101001101101110001001111 5#
b100011110111000101010001110100 ;#
b1100011110111000101010001110100 /#
b1000000000000000000000000000000 4#
b1100011110111000101010001110100 $"
b111 ""
b1100011110111000101010001110100 8#
b111 6#
b1010000000 K"
1-
#80
0-
